…
### `fpat`

Filter rows matching a pattern in a column:

``` r
ggplot2::diamonds |> fpat("Good", cut)
#> # A tibble: 16,988 × 10
#>    carat cut       color clarity depth table price     x     y     z
#>    <dbl> <ord>     <ord> <ord>   <dbl> <dbl> <int> <dbl> <dbl> <dbl>
#>  1  0.23 Good      E     VS1      56.9    65   327  4.05  4.07  2.31
#>  2  0.31 Good      J     SI2      63.3    58   335  4.34  4.35  2.75
#>  3  0.24 Very Good J     VVS2     62.8    57   336  3.94  3.96  2.48
#>  4  0.24 Very Good I     VVS1     62.3    57   336  3.95  3.98  2.47
#>  5  0.26 Very Good H     SI1      61.9    55   337  4.07  4.11  2.53
#>  6  0.23 Very Good H     VS1      59.4    61   338  4     4.05  2.39
#>  7  0.3  Good      J     SI1      64      55   339  4.25  4.28  2.73
#>  8  0.3  Good      J     SI1      63.4    54   351  4.23  4.29  2.7 
#>  9  0.3  Good      J     SI1      63.8    56   351  4.23  4.26  2.71
#> 10  0.3  Very Good J     SI1      62.7    59   351  4.21  4.27  2.66
#> # ℹ 16,978 more rows
```
…
